{
  "capacity": 0,
  "description": "Barren planets are archetypical \"dead terrestrials\": dry, rocky worlds with a minimal atmosphere and an unremarkable composition. They are commonly etched with flood channels, which are often broad enough to be visible from orbit; most such worlds have accumulated significant quantities of ice over their lifetimes, but cannot retain it on their surface. Generally surface liquid evaporates rapidly, contributing to the thin atmosphere, but occasionally it will seep back into the ground and refreeze, ready for another breakout in future when the local temperature rises.",
  "graphic_id": 3837,
  "group_id": 7,
  "icon_id": 10135,
  "mass": 1e+35,
  "name": "Planet (Barren)",
  "packaged_volume": 1,
  "portion_size": 1,
  "published": false,
  "radius": 10000,
  "type_id": 2016,
  "volume": 1
}
